{
  "stats": {
    "suites": 1,
    "tests": 5,
    "passes": 5,
    "pending": 0,
    "failures": 0,
    "start": "2021-04-27T13:37:33.435Z",
    "end": "2021-04-27T13:37:35.205Z",
    "duration": 1770,
    "testsRegistered": 5,
    "passPercent": 100,
    "pendingPercent": 0,
    "other": 0,
    "hasOther": false,
    "skipped": 0,
    "hasSkipped": false
  },
  "results": [
    {
      "uuid": "f46880c1-1b28-41c3-a214-431a3092838f",
      "title": "",
      "fullFile": "cypress/integration/e2e/addToDo.spec.js",
      "file": "cypress/integration/e2e/addToDo.spec.js",
      "beforeHooks": [],
      "afterHooks": [],
      "tests": [],
      "suites": [
        {
          "uuid": "b8827232-5c83-4091-94f5-9ec4c174e1d6",
          "title": "Add ToDo to verify added text",
          "fullFile": "",
          "file": "",
          "beforeHooks": [],
          "afterHooks": [],
          "tests": [
            {
              "title": "Type text in input check box and add ToDo",
              "fullTitle": "Add ToDo to verify added text Type text in input check box and add ToDo",
              "timedOut": null,
              "duration": 1633,
              "state": "passed",
              "speed": "slow",
              "pass": true,
              "fail": false,
              "pending": false,
              "context": null,
              "code": "cy.getDataTestID(_locators.inputTextBox).type(_example.default.trainingSession);\ncy.getDataTestID(_locators.addToDoButton).click();\ncy.getDataTestID(_locators.inputTextBox).type(_example.default.webinars);\ncy.getDataTestID(_locators.addToDoButton).click();\ncy.getDataTestID(_locators.inputTextBox).type(_example.default.technicalDiscussion);\ncy.getDataTestID(_locators.addToDoButton).click();",
              "err": {},
              "uuid": "1a64424c-b278-4a55-9b85-564c4f7512c1",
              "parentUUID": "b8827232-5c83-4091-94f5-9ec4c174e1d6",
              "isHook": false,
              "skipped": false
            },
            {
              "title": "Verify the text added is visible",
              "fullTitle": "Add ToDo to verify added text Verify the text added is visible",
              "timedOut": null,
              "duration": 46,
              "state": "passed",
              "speed": "medium",
              "pass": true,
              "fail": false,
              "pending": false,
              "context": null,
              "code": "cy.isTextVisible(_locators.textDecorationOne);\ncy.isTextVisible(_locators.textDecorationTwo);\ncy.isTextVisible(_locators.textDecorationThree);",
              "err": {},
              "uuid": "fca66b7f-65ae-4e3d-8ada-6f7a2e5513bc",
              "parentUUID": "b8827232-5c83-4091-94f5-9ec4c174e1d6",
              "isHook": false,
              "skipped": false
            },
            {
              "title": "Verify show label is visible",
              "fullTitle": "Add ToDo to verify added text Verify show label is visible",
              "timedOut": null,
              "duration": 20,
              "state": "passed",
              "speed": "fast",
              "pass": true,
              "fail": false,
              "pending": false,
              "context": null,
              "code": "cy.isVisible(_locators.showLabel);",
              "err": {},
              "uuid": "c33dbf74-b941-4524-8520-c889343cca84",
              "parentUUID": "b8827232-5c83-4091-94f5-9ec4c174e1d6",
              "isHook": false,
              "skipped": false
            },
            {
              "title": "Check whether All button is disabled",
              "fullTitle": "Add ToDo to verify added text Check whether All button is disabled",
              "timedOut": null,
              "duration": 16,
              "state": "passed",
              "speed": "fast",
              "pass": true,
              "fail": false,
              "pending": false,
              "context": null,
              "code": "cy.isButtonDisabled(_locators.allButton);",
              "err": {},
              "uuid": "f5c6ccd1-e23e-4268-ac7e-ffce8abd698d",
              "parentUUID": "b8827232-5c83-4091-94f5-9ec4c174e1d6",
              "isHook": false,
              "skipped": false
            },
            {
              "title": "Check whether Active and Completed buttons are enabled",
              "fullTitle": "Add ToDo to verify added text Check whether Active and Completed buttons are enabled",
              "timedOut": null,
              "duration": 23,
              "state": "passed",
              "speed": "fast",
              "pass": true,
              "fail": false,
              "pending": false,
              "context": null,
              "code": "cy.isButtonEnabled(_locators.activeButton);\ncy.isButtonEnabled(_locators.completedButton);",
              "err": {},
              "uuid": "8cff810a-c509-4848-81bc-050b2fbbd352",
              "parentUUID": "b8827232-5c83-4091-94f5-9ec4c174e1d6",
              "isHook": false,
              "skipped": false
            }
          ],
          "suites": [],
          "passes": [
            "1a64424c-b278-4a55-9b85-564c4f7512c1",
            "fca66b7f-65ae-4e3d-8ada-6f7a2e5513bc",
            "c33dbf74-b941-4524-8520-c889343cca84",
            "f5c6ccd1-e23e-4268-ac7e-ffce8abd698d",
            "8cff810a-c509-4848-81bc-050b2fbbd352"
          ],
          "failures": [],
          "pending": [],
          "skipped": [],
          "duration": 1738,
          "root": false,
          "rootEmpty": false,
          "_timeout": 2000
        }
      ],
      "passes": [],
      "failures": [],
      "pending": [],
      "skipped": [],
      "duration": 0,
      "root": true,
      "rootEmpty": true,
      "_timeout": 2000
    }
  ],
  "meta": {
    "mocha": {
      "version": "7.0.1"
    },
    "mochawesome": {
      "options": {
        "quiet": false,
        "reportFilename": "mochawesome",
        "saveHtml": false,
        "saveJson": true,
        "consoleReporter": "spec",
        "useInlineDiffs": false,
        "code": true
      },
      "version": "6.2.2"
    },
    "marge": {
      "options": {
        "id": "default",
        "reportDir": "cypress/reports/mocha",
        "quite": true,
        "overwrite": false,
        "html": false,
        "json": true
      },
      "version": "5.2.0"
    }
  }
}