{
  "stats": {
    "suites": 1,
    "tests": 9,
    "passes": 9,
    "pending": 0,
    "failures": 0,
    "start": "2021-04-29T09:26:55.640Z",
    "end": "2021-04-29T09:27:00.847Z",
    "duration": 5207,
    "testsRegistered": 9,
    "passPercent": 100,
    "pendingPercent": 0,
    "other": 0,
    "hasOther": false,
    "skipped": 0,
    "hasSkipped": false
  },
  "results": [
    {
      "uuid": "d167983d-d56c-49d8-8fa9-0990068e05b0",
      "title": "",
      "fullFile": "cypress/integration/e2e/activeButton.spec.js",
      "file": "cypress/integration/e2e/activeButton.spec.js",
      "beforeHooks": [],
      "afterHooks": [],
      "tests": [],
      "suites": [
        {
          "uuid": "1879717f-66a2-4a24-9d70-c14ef3c416b1",
          "title": "Active Button",
          "fullFile": "",
          "file": "",
          "beforeHooks": [],
          "afterHooks": [],
          "tests": [
            {
              "title": "Type text in input check box and add ToDo",
              "fullTitle": "Active Button Type text in input check box and add ToDo",
              "timedOut": null,
              "duration": 4197,
              "state": "passed",
              "speed": "slow",
              "pass": true,
              "fail": false,
              "pending": false,
              "context": null,
              "code": "cy.getDataTestID(_locators.inputTextBox).type(_example.default.trainingSession);\ncy.getDataTestID(_locators.addToDoButton).click();\ncy.getDataTestID(_locators.inputTextBox).type(_example.default.webinars);\ncy.getDataTestID(_locators.addToDoButton).click();\ncy.getDataTestID(_locators.inputTextBox).type(_example.default.technicalDiscussion);\ncy.getDataTestID(_locators.addToDoButton).click();",
              "err": {},
              "uuid": "48d734d6-352e-440c-b859-442eb00a28e1",
              "parentUUID": "1879717f-66a2-4a24-9d70-c14ef3c416b1",
              "isHook": false,
              "skipped": false
            },
            {
              "title": "Check whether All button is disabled",
              "fullTitle": "Active Button Check whether All button is disabled",
              "timedOut": null,
              "duration": 137,
              "state": "passed",
              "speed": "slow",
              "pass": true,
              "fail": false,
              "pending": false,
              "context": null,
              "code": "cy.isButtonDisabled(_locators.allButton);",
              "err": {},
              "uuid": "0d1a471f-a5a1-4d76-9e9a-10a9842ddbdf",
              "parentUUID": "1879717f-66a2-4a24-9d70-c14ef3c416b1",
              "isHook": false,
              "skipped": false
            },
            {
              "title": "Check whether active button is enabled and click it",
              "fullTitle": "Active Button Check whether active button is enabled and click it",
              "timedOut": null,
              "duration": 183,
              "state": "passed",
              "speed": "slow",
              "pass": true,
              "fail": false,
              "pending": false,
              "context": null,
              "code": "cy.isButtonEnabled(_locators.activeButton);\ncy.get(_locators.activeButton).click();",
              "err": {},
              "uuid": "e0bb88a4-5733-4536-b078-2c6a4186eefa",
              "parentUUID": "1879717f-66a2-4a24-9d70-c14ef3c416b1",
              "isHook": false,
              "skipped": false
            },
            {
              "title": "Check whether active button is disabled now",
              "fullTitle": "Active Button Check whether active button is disabled now",
              "timedOut": null,
              "duration": 101,
              "state": "passed",
              "speed": "slow",
              "pass": true,
              "fail": false,
              "pending": false,
              "context": null,
              "code": "cy.isButtonDisabled(_locators.activeButton);",
              "err": {},
              "uuid": "4394729a-0ff1-4af0-a43b-85319c53fe0d",
              "parentUUID": "1879717f-66a2-4a24-9d70-c14ef3c416b1",
              "isHook": false,
              "skipped": false
            },
            {
              "title": "Check whether all and completed buttons are enabled now",
              "fullTitle": "Active Button Check whether all and completed buttons are enabled now",
              "timedOut": null,
              "duration": 109,
              "state": "passed",
              "speed": "slow",
              "pass": true,
              "fail": false,
              "pending": false,
              "context": null,
              "code": "cy.isButtonEnabled(_locators.allButton);\ncy.isButtonEnabled(_locators.completedButton);",
              "err": {},
              "uuid": "2016ac9a-adcb-4a62-8d91-64ffcbf6bfca",
              "parentUUID": "1879717f-66a2-4a24-9d70-c14ef3c416b1",
              "isHook": false,
              "skipped": false
            },
            {
              "title": "Verify the text added is visible",
              "fullTitle": "Active Button Verify the text added is visible",
              "timedOut": null,
              "duration": 196,
              "state": "passed",
              "speed": "slow",
              "pass": true,
              "fail": false,
              "pending": false,
              "context": null,
              "code": "cy.isTextVisible(_locators.textDecorationOne);\ncy.isTextVisible(_locators.textDecorationTwo);\ncy.isTextVisible(_locators.textDecorationThree);",
              "err": {},
              "uuid": "c17b5791-ecfa-454c-9a9c-df895d5a22bd",
              "parentUUID": "1879717f-66a2-4a24-9d70-c14ef3c416b1",
              "isHook": false,
              "skipped": false
            },
            {
              "title": "Verify show label is visible",
              "fullTitle": "Active Button Verify show label is visible",
              "timedOut": null,
              "duration": 45,
              "state": "passed",
              "speed": "medium",
              "pass": true,
              "fail": false,
              "pending": false,
              "context": null,
              "code": "cy.isVisible(_locators.showLabel);",
              "err": {},
              "uuid": "f8142a5a-ab8a-45a3-9982-411af3901e94",
              "parentUUID": "1879717f-66a2-4a24-9d70-c14ef3c416b1",
              "isHook": false,
              "skipped": false
            },
            {
              "title": "Verify input text box is enabled",
              "fullTitle": "Active Button Verify input text box is enabled",
              "timedOut": null,
              "duration": 37,
              "state": "passed",
              "speed": "fast",
              "pass": true,
              "fail": false,
              "pending": false,
              "context": null,
              "code": "cy.isEnabled(_locators.inputTextBox);",
              "err": {},
              "uuid": "00a655ef-2ad7-4948-829a-8b4fb706d257",
              "parentUUID": "1879717f-66a2-4a24-9d70-c14ef3c416b1",
              "isHook": false,
              "skipped": false
            },
            {
              "title": "Verify Add Todo button is enabled",
              "fullTitle": "Active Button Verify Add Todo button is enabled",
              "timedOut": null,
              "duration": 80,
              "state": "passed",
              "speed": "slow",
              "pass": true,
              "fail": false,
              "pending": false,
              "context": null,
              "code": "cy.isEnabled(_locators.addToDoButton);",
              "err": {},
              "uuid": "e55effa3-d082-45c2-a04e-c2ce71ff9860",
              "parentUUID": "1879717f-66a2-4a24-9d70-c14ef3c416b1",
              "isHook": false,
              "skipped": false
            }
          ],
          "suites": [],
          "passes": [
            "48d734d6-352e-440c-b859-442eb00a28e1",
            "0d1a471f-a5a1-4d76-9e9a-10a9842ddbdf",
            "e0bb88a4-5733-4536-b078-2c6a4186eefa",
            "4394729a-0ff1-4af0-a43b-85319c53fe0d",
            "2016ac9a-adcb-4a62-8d91-64ffcbf6bfca",
            "c17b5791-ecfa-454c-9a9c-df895d5a22bd",
            "f8142a5a-ab8a-45a3-9982-411af3901e94",
            "00a655ef-2ad7-4948-829a-8b4fb706d257",
            "e55effa3-d082-45c2-a04e-c2ce71ff9860"
          ],
          "failures": [],
          "pending": [],
          "skipped": [],
          "duration": 5085,
          "root": false,
          "rootEmpty": false,
          "_timeout": 2000
        }
      ],
      "passes": [],
      "failures": [],
      "pending": [],
      "skipped": [],
      "duration": 0,
      "root": true,
      "rootEmpty": true,
      "_timeout": 2000
    }
  ],
  "meta": {
    "mocha": {
      "version": "7.0.1"
    },
    "mochawesome": {
      "options": {
        "quiet": false,
        "reportFilename": "mochawesome",
        "saveHtml": false,
        "saveJson": true,
        "consoleReporter": "spec",
        "useInlineDiffs": false,
        "code": true
      },
      "version": "6.2.2"
    },
    "marge": {
      "options": {
        "id": "default",
        "reportDir": "cypress/reports/mocha",
        "quite": true,
        "overwrite": false,
        "html": false,
        "json": true
      },
      "version": "5.2.0"
    }
  }
}