{
  "stats": {
    "suites": 1,
    "tests": 15,
    "passes": 15,
    "pending": 0,
    "failures": 0,
    "start": "2021-04-27T13:37:49.856Z",
    "end": "2021-04-27T13:37:52.291Z",
    "duration": 2435,
    "testsRegistered": 15,
    "passPercent": 100,
    "pendingPercent": 0,
    "other": 0,
    "hasOther": false,
    "skipped": 0,
    "hasSkipped": false
  },
  "results": [
    {
      "uuid": "f5d689ad-8732-45ea-9e09-fbb54361d9bd",
      "title": "",
      "fullFile": "cypress/integration/e2e/completedButton.spec.js",
      "file": "cypress/integration/e2e/completedButton.spec.js",
      "beforeHooks": [],
      "afterHooks": [],
      "tests": [],
      "suites": [
        {
          "uuid": "1befb942-f5b6-4121-9b5f-3d4913d9a673",
          "title": "Completed Button",
          "fullFile": "",
          "file": "",
          "beforeHooks": [],
          "afterHooks": [],
          "tests": [
            {
              "title": "Type text in input check box and add ToDo",
              "fullTitle": "Completed Button Type text in input check box and add ToDo",
              "timedOut": null,
              "duration": 1668,
              "state": "passed",
              "speed": "slow",
              "pass": true,
              "fail": false,
              "pending": false,
              "context": null,
              "code": "cy.getDataTestID(_locators.inputTextBox).type(_example.default.trainingSession);\ncy.getDataTestID(_locators.addToDoButton).click();\ncy.getDataTestID(_locators.inputTextBox).type(_example.default.webinars);\ncy.getDataTestID(_locators.addToDoButton).click();\ncy.getDataTestID(_locators.inputTextBox).type(_example.default.technicalDiscussion);\ncy.getDataTestID(_locators.addToDoButton).click();",
              "err": {},
              "uuid": "7788f98f-8579-41f1-92e0-0e25f8deb1f0",
              "parentUUID": "1befb942-f5b6-4121-9b5f-3d4913d9a673",
              "isHook": false,
              "skipped": false
            },
            {
              "title": "Verify the text added is visible",
              "fullTitle": "Completed Button Verify the text added is visible",
              "timedOut": null,
              "duration": 42,
              "state": "passed",
              "speed": "medium",
              "pass": true,
              "fail": false,
              "pending": false,
              "context": null,
              "code": "cy.isTextVisible(_locators.textDecorationOne);\ncy.isTextVisible(_locators.textDecorationTwo);\ncy.isTextVisible(_locators.textDecorationThree);",
              "err": {},
              "uuid": "7dc5d6b3-ef4d-42b0-b4b5-4754e38247d5",
              "parentUUID": "1befb942-f5b6-4121-9b5f-3d4913d9a673",
              "isHook": false,
              "skipped": false
            },
            {
              "title": "Check whether All button is disabled",
              "fullTitle": "Completed Button Check whether All button is disabled",
              "timedOut": null,
              "duration": 19,
              "state": "passed",
              "speed": "fast",
              "pass": true,
              "fail": false,
              "pending": false,
              "context": null,
              "code": "cy.isButtonDisabled(_locators.allButton);",
              "err": {},
              "uuid": "1e26e9e0-1b9b-4b18-9e46-4bbb33470d4d",
              "parentUUID": "1befb942-f5b6-4121-9b5f-3d4913d9a673",
              "isHook": false,
              "skipped": false
            },
            {
              "title": "Check whether completed button is enabled and click it",
              "fullTitle": "Completed Button Check whether completed button is enabled and click it",
              "timedOut": null,
              "duration": 102,
              "state": "passed",
              "speed": "slow",
              "pass": true,
              "fail": false,
              "pending": false,
              "context": null,
              "code": "cy.isButtonEnabled(_locators.completedButton);\ncy.get(_locators.completedButton).click();",
              "err": {},
              "uuid": "ed7086a0-da15-4ce5-810c-89afaac77f9e",
              "parentUUID": "1befb942-f5b6-4121-9b5f-3d4913d9a673",
              "isHook": false,
              "skipped": false
            },
            {
              "title": "Check whether completed button is disabled now",
              "fullTitle": "Completed Button Check whether completed button is disabled now",
              "timedOut": null,
              "duration": 14,
              "state": "passed",
              "speed": "fast",
              "pass": true,
              "fail": false,
              "pending": false,
              "context": null,
              "code": "cy.isButtonDisabled(_locators.completedButton);",
              "err": {},
              "uuid": "aff060b5-7f27-4e9f-8533-c8611cb3b42d",
              "parentUUID": "1befb942-f5b6-4121-9b5f-3d4913d9a673",
              "isHook": false,
              "skipped": false
            },
            {
              "title": "Verify the text added earlier is not visible",
              "fullTitle": "Completed Button Verify the text added earlier is not visible",
              "timedOut": null,
              "duration": 18,
              "state": "passed",
              "speed": "fast",
              "pass": true,
              "fail": false,
              "pending": false,
              "context": null,
              "code": "cy.isTextNotVisible(_locators.textDecorationOne);\ncy.isTextNotVisible(_locators.textDecorationTwo);\ncy.isTextNotVisible(_locators.textDecorationThree);",
              "err": {},
              "uuid": "0b3de5a2-d180-4d81-bf95-ac62acb81f80",
              "parentUUID": "1befb942-f5b6-4121-9b5f-3d4913d9a673",
              "isHook": false,
              "skipped": false
            },
            {
              "title": "Verify show label is visible",
              "fullTitle": "Completed Button Verify show label is visible",
              "timedOut": null,
              "duration": 18,
              "state": "passed",
              "speed": "fast",
              "pass": true,
              "fail": false,
              "pending": false,
              "context": null,
              "code": "cy.isVisible(_locators.showLabel);",
              "err": {},
              "uuid": "a9cca320-0da5-4efc-8876-1a4398dc6dae",
              "parentUUID": "1befb942-f5b6-4121-9b5f-3d4913d9a673",
              "isHook": false,
              "skipped": false
            },
            {
              "title": "Check whether all and active buttons are enabled now",
              "fullTitle": "Completed Button Check whether all and active buttons are enabled now",
              "timedOut": null,
              "duration": 24,
              "state": "passed",
              "speed": "fast",
              "pass": true,
              "fail": false,
              "pending": false,
              "context": null,
              "code": "cy.isButtonEnabled(_locators.allButton);\ncy.isButtonEnabled(_locators.activeButton);",
              "err": {},
              "uuid": "e6225bfe-2699-46bc-97f3-a3b62e92d869",
              "parentUUID": "1befb942-f5b6-4121-9b5f-3d4913d9a673",
              "isHook": false,
              "skipped": false
            },
            {
              "title": "Verify input text box is enabled",
              "fullTitle": "Completed Button Verify input text box is enabled",
              "timedOut": null,
              "duration": 13,
              "state": "passed",
              "speed": "fast",
              "pass": true,
              "fail": false,
              "pending": false,
              "context": null,
              "code": "cy.isEnabled(_locators.inputTextBox);",
              "err": {},
              "uuid": "8a7454b8-636b-4f42-94c6-72798a6bdc1e",
              "parentUUID": "1befb942-f5b6-4121-9b5f-3d4913d9a673",
              "isHook": false,
              "skipped": false
            },
            {
              "title": "Verify Add Todo button is enabled",
              "fullTitle": "Completed Button Verify Add Todo button is enabled",
              "timedOut": null,
              "duration": 20,
              "state": "passed",
              "speed": "fast",
              "pass": true,
              "fail": false,
              "pending": false,
              "context": null,
              "code": "cy.isEnabled(_locators.addToDoButton);",
              "err": {},
              "uuid": "288b2ad0-c57e-472a-b0bc-1dd21c5bccd0",
              "parentUUID": "1befb942-f5b6-4121-9b5f-3d4913d9a673",
              "isHook": false,
              "skipped": false
            },
            {
              "title": "Click on All button",
              "fullTitle": "Completed Button Click on All button",
              "timedOut": null,
              "duration": 96,
              "state": "passed",
              "speed": "slow",
              "pass": true,
              "fail": false,
              "pending": false,
              "context": null,
              "code": "cy.get(_locators.allButton).click();",
              "err": {},
              "uuid": "17ddf23a-f7d0-4670-a7d9-843bb44994cf",
              "parentUUID": "1befb942-f5b6-4121-9b5f-3d4913d9a673",
              "isHook": false,
              "skipped": false
            },
            {
              "title": "Click on the added text to strike through",
              "fullTitle": "Completed Button Click on the added text to strike through",
              "timedOut": null,
              "duration": 172,
              "state": "passed",
              "speed": "slow",
              "pass": true,
              "fail": false,
              "pending": false,
              "context": null,
              "code": "cy.textClick(_locators.textDecorationOne);\ncy.textClick(_locators.textDecorationTwo);",
              "err": {},
              "uuid": "4ed9683f-9c18-4506-83e2-20333b9b7ce5",
              "parentUUID": "1befb942-f5b6-4121-9b5f-3d4913d9a673",
              "isHook": false,
              "skipped": false
            },
            {
              "title": "Verify required text is visible with strike through",
              "fullTitle": "Completed Button Verify required text is visible with strike through",
              "timedOut": null,
              "duration": 30,
              "state": "passed",
              "speed": "fast",
              "pass": true,
              "fail": false,
              "pending": false,
              "context": null,
              "code": "cy.isXpathVisible(_locators.strikeThroughOne);\ncy.isXpathVisible(_locators.strikeThroughTwo);",
              "err": {},
              "uuid": "5d7849b3-9302-414a-9c53-08ca7796eab1",
              "parentUUID": "1befb942-f5b6-4121-9b5f-3d4913d9a673",
              "isHook": false,
              "skipped": false
            },
            {
              "title": "Verify Completed button is enabled and click it",
              "fullTitle": "Completed Button Verify Completed button is enabled and click it",
              "timedOut": null,
              "duration": 95,
              "state": "passed",
              "speed": "slow",
              "pass": true,
              "fail": false,
              "pending": false,
              "context": null,
              "code": "cy.isButtonEnabled(_locators.completedButton);\ncy.get(_locators.completedButton).click();",
              "err": {},
              "uuid": "dd8fa901-f493-4124-8c76-47ad9a1c3027",
              "parentUUID": "1befb942-f5b6-4121-9b5f-3d4913d9a673",
              "isHook": false,
              "skipped": false
            },
            {
              "title": "Verify strike through text is visible after clicking completed button",
              "fullTitle": "Completed Button Verify strike through text is visible after clicking completed button",
              "timedOut": null,
              "duration": 25,
              "state": "passed",
              "speed": "fast",
              "pass": true,
              "fail": false,
              "pending": false,
              "context": null,
              "code": "cy.isXpathVisible(_locators.strikeThroughOne);\ncy.isXpathVisible(_locators.strikeThroughTwo);",
              "err": {},
              "uuid": "f802daae-6db7-45db-a600-4544887ef6ab",
              "parentUUID": "1befb942-f5b6-4121-9b5f-3d4913d9a673",
              "isHook": false,
              "skipped": false
            }
          ],
          "suites": [],
          "passes": [
            "7788f98f-8579-41f1-92e0-0e25f8deb1f0",
            "7dc5d6b3-ef4d-42b0-b4b5-4754e38247d5",
            "1e26e9e0-1b9b-4b18-9e46-4bbb33470d4d",
            "ed7086a0-da15-4ce5-810c-89afaac77f9e",
            "aff060b5-7f27-4e9f-8533-c8611cb3b42d",
            "0b3de5a2-d180-4d81-bf95-ac62acb81f80",
            "a9cca320-0da5-4efc-8876-1a4398dc6dae",
            "e6225bfe-2699-46bc-97f3-a3b62e92d869",
            "8a7454b8-636b-4f42-94c6-72798a6bdc1e",
            "288b2ad0-c57e-472a-b0bc-1dd21c5bccd0",
            "17ddf23a-f7d0-4670-a7d9-843bb44994cf",
            "4ed9683f-9c18-4506-83e2-20333b9b7ce5",
            "5d7849b3-9302-414a-9c53-08ca7796eab1",
            "dd8fa901-f493-4124-8c76-47ad9a1c3027",
            "f802daae-6db7-45db-a600-4544887ef6ab"
          ],
          "failures": [],
          "pending": [],
          "skipped": [],
          "duration": 2356,
          "root": false,
          "rootEmpty": false,
          "_timeout": 2000
        }
      ],
      "passes": [],
      "failures": [],
      "pending": [],
      "skipped": [],
      "duration": 0,
      "root": true,
      "rootEmpty": true,
      "_timeout": 2000
    }
  ],
  "meta": {
    "mocha": {
      "version": "7.0.1"
    },
    "mochawesome": {
      "options": {
        "quiet": false,
        "reportFilename": "mochawesome",
        "saveHtml": false,
        "saveJson": true,
        "consoleReporter": "spec",
        "useInlineDiffs": false,
        "code": true
      },
      "version": "6.2.2"
    },
    "marge": {
      "options": {
        "id": "default",
        "reportDir": "cypress/reports/mocha",
        "quite": true,
        "overwrite": false,
        "html": false,
        "json": true
      },
      "version": "5.2.0"
    }
  }
}