{
  "stats": {
    "suites": 1,
    "tests": 10,
    "passes": 10,
    "pending": 0,
    "failures": 0,
    "start": "2021-04-27T13:37:58.252Z",
    "end": "2021-04-27T13:38:00.552Z",
    "duration": 2300,
    "testsRegistered": 10,
    "passPercent": 100,
    "pendingPercent": 0,
    "other": 0,
    "hasOther": false,
    "skipped": 0,
    "hasSkipped": false
  },
  "results": [
    {
      "uuid": "f95b4d99-9448-4be9-966f-576da8ade69f",
      "title": "",
      "fullFile": "cypress/integration/e2e/strikeThrough.spec.js",
      "file": "cypress/integration/e2e/strikeThrough.spec.js",
      "beforeHooks": [],
      "afterHooks": [],
      "tests": [],
      "suites": [
        {
          "uuid": "dfe47bb4-150f-4af8-b31b-f85bac8d0d15",
          "title": "Strike through text validation after clicking for ALL, Active and Completed Buttons",
          "fullFile": "",
          "file": "",
          "beforeHooks": [],
          "afterHooks": [],
          "tests": [
            {
              "title": "Type text in input check box and add ToDo",
              "fullTitle": "Strike through text validation after clicking for ALL, Active and Completed Buttons Type text in input check box and add ToDo",
              "timedOut": null,
              "duration": 1661,
              "state": "passed",
              "speed": "slow",
              "pass": true,
              "fail": false,
              "pending": false,
              "context": null,
              "code": "cy.getDataTestID(_locators.inputTextBox).type(_example.default.trainingSession);\ncy.getDataTestID(_locators.addToDoButton).click();\ncy.getDataTestID(_locators.inputTextBox).type(_example.default.webinars);\ncy.getDataTestID(_locators.addToDoButton).click();\ncy.getDataTestID(_locators.inputTextBox).type(_example.default.technicalDiscussion);\ncy.getDataTestID(_locators.addToDoButton).click();",
              "err": {},
              "uuid": "32639b0d-d246-4525-b3e2-ef8bb5163cf4",
              "parentUUID": "dfe47bb4-150f-4af8-b31b-f85bac8d0d15",
              "isHook": false,
              "skipped": false
            },
            {
              "title": "Verify the text added is visible",
              "fullTitle": "Strike through text validation after clicking for ALL, Active and Completed Buttons Verify the text added is visible",
              "timedOut": null,
              "duration": 40,
              "state": "passed",
              "speed": "medium",
              "pass": true,
              "fail": false,
              "pending": false,
              "context": null,
              "code": "cy.isTextVisible(_locators.textDecorationOne);\ncy.isTextVisible(_locators.textDecorationTwo);\ncy.isTextVisible(_locators.textDecorationThree);",
              "err": {},
              "uuid": "cb3b49d8-bfbb-4c5c-808b-475664182cef",
              "parentUUID": "dfe47bb4-150f-4af8-b31b-f85bac8d0d15",
              "isHook": false,
              "skipped": false
            },
            {
              "title": "Check whether All button is disabled",
              "fullTitle": "Strike through text validation after clicking for ALL, Active and Completed Buttons Check whether All button is disabled",
              "timedOut": null,
              "duration": 17,
              "state": "passed",
              "speed": "fast",
              "pass": true,
              "fail": false,
              "pending": false,
              "context": null,
              "code": "cy.isButtonDisabled(_locators.allButton);",
              "err": {},
              "uuid": "490353d5-aa14-497e-ab00-1240934d3f3a",
              "parentUUID": "dfe47bb4-150f-4af8-b31b-f85bac8d0d15",
              "isHook": false,
              "skipped": false
            },
            {
              "title": "Click on the added text to strike through",
              "fullTitle": "Strike through text validation after clicking for ALL, Active and Completed Buttons Click on the added text to strike through",
              "timedOut": null,
              "duration": 178,
              "state": "passed",
              "speed": "slow",
              "pass": true,
              "fail": false,
              "pending": false,
              "context": null,
              "code": "cy.textClick(_locators.textDecorationOne);\ncy.textClick(_locators.textDecorationTwo);",
              "err": {},
              "uuid": "eb87a574-a159-41bb-be85-23b9064807e5",
              "parentUUID": "dfe47bb4-150f-4af8-b31b-f85bac8d0d15",
              "isHook": false,
              "skipped": false
            },
            {
              "title": "Check whether completed button is enabled and click it",
              "fullTitle": "Strike through text validation after clicking for ALL, Active and Completed Buttons Check whether completed button is enabled and click it",
              "timedOut": null,
              "duration": 97,
              "state": "passed",
              "speed": "slow",
              "pass": true,
              "fail": false,
              "pending": false,
              "context": null,
              "code": "cy.isButtonEnabled(_locators.completedButton);\ncy.get(_locators.completedButton).click();",
              "err": {},
              "uuid": "59d777a3-5351-4aa4-aecc-f5468323aa08",
              "parentUUID": "dfe47bb4-150f-4af8-b31b-f85bac8d0d15",
              "isHook": false,
              "skipped": false
            },
            {
              "title": "Verify strike through text is visible after clicking completed button",
              "fullTitle": "Strike through text validation after clicking for ALL, Active and Completed Buttons Verify strike through text is visible after clicking completed button",
              "timedOut": null,
              "duration": 21,
              "state": "passed",
              "speed": "fast",
              "pass": true,
              "fail": false,
              "pending": false,
              "context": null,
              "code": "cy.isXpathVisible(_locators.strikeThroughOne);\ncy.isXpathVisible(_locators.strikeThroughTwo);",
              "err": {},
              "uuid": "fcfde9d3-396b-490e-b36c-dcfa435f2e21",
              "parentUUID": "dfe47bb4-150f-4af8-b31b-f85bac8d0d15",
              "isHook": false,
              "skipped": false
            },
            {
              "title": "Click on All button",
              "fullTitle": "Strike through text validation after clicking for ALL, Active and Completed Buttons Click on All button",
              "timedOut": null,
              "duration": 90,
              "state": "passed",
              "speed": "slow",
              "pass": true,
              "fail": false,
              "pending": false,
              "context": null,
              "code": "cy.get(_locators.allButton).click();",
              "err": {},
              "uuid": "046b86d6-c0cf-469b-99ad-9fa01fda2339",
              "parentUUID": "dfe47bb4-150f-4af8-b31b-f85bac8d0d15",
              "isHook": false,
              "skipped": false
            },
            {
              "title": "Verify strike through and non-strike through text is visible after clicking All button",
              "fullTitle": "Strike through text validation after clicking for ALL, Active and Completed Buttons Verify strike through and non-strike through text is visible after clicking All button",
              "timedOut": null,
              "duration": 30,
              "state": "passed",
              "speed": "fast",
              "pass": true,
              "fail": false,
              "pending": false,
              "context": null,
              "code": "cy.isXpathVisible(_locators.strikeThroughOne);\ncy.isXpathVisible(_locators.strikeThroughTwo);\ncy.isXpathVisible(_locators.strikeThroughThree);",
              "err": {},
              "uuid": "17380ac0-885d-4bf0-8276-36e6a2b797cb",
              "parentUUID": "dfe47bb4-150f-4af8-b31b-f85bac8d0d15",
              "isHook": false,
              "skipped": false
            },
            {
              "title": "Click on Active button",
              "fullTitle": "Strike through text validation after clicking for ALL, Active and Completed Buttons Click on Active button",
              "timedOut": null,
              "duration": 89,
              "state": "passed",
              "speed": "slow",
              "pass": true,
              "fail": false,
              "pending": false,
              "context": null,
              "code": "cy.get(_locators.activeButton).click();",
              "err": {},
              "uuid": "04e0ca33-fb19-4114-9726-3e2df03e69d1",
              "parentUUID": "dfe47bb4-150f-4af8-b31b-f85bac8d0d15",
              "isHook": false,
              "skipped": false
            },
            {
              "title": "Verify only non-strike through text is visible after clicking All button",
              "fullTitle": "Strike through text validation after clicking for ALL, Active and Completed Buttons Verify only non-strike through text is visible after clicking All button",
              "timedOut": null,
              "duration": 26,
              "state": "passed",
              "speed": "fast",
              "pass": true,
              "fail": false,
              "pending": false,
              "context": null,
              "code": "cy.isXpathVisible(_locators.strikeThroughThree);\ncy.isXpathNotVisible(_locators.strikeThroughOne);\ncy.isXpathNotVisible(_locators.strikeThroughTwo);",
              "err": {},
              "uuid": "db6f39e3-108f-4c46-aa26-2a02410ae974",
              "parentUUID": "dfe47bb4-150f-4af8-b31b-f85bac8d0d15",
              "isHook": false,
              "skipped": false
            }
          ],
          "suites": [],
          "passes": [
            "32639b0d-d246-4525-b3e2-ef8bb5163cf4",
            "cb3b49d8-bfbb-4c5c-808b-475664182cef",
            "490353d5-aa14-497e-ab00-1240934d3f3a",
            "eb87a574-a159-41bb-be85-23b9064807e5",
            "59d777a3-5351-4aa4-aecc-f5468323aa08",
            "fcfde9d3-396b-490e-b36c-dcfa435f2e21",
            "046b86d6-c0cf-469b-99ad-9fa01fda2339",
            "17380ac0-885d-4bf0-8276-36e6a2b797cb",
            "04e0ca33-fb19-4114-9726-3e2df03e69d1",
            "db6f39e3-108f-4c46-aa26-2a02410ae974"
          ],
          "failures": [],
          "pending": [],
          "skipped": [],
          "duration": 2249,
          "root": false,
          "rootEmpty": false,
          "_timeout": 2000
        }
      ],
      "passes": [],
      "failures": [],
      "pending": [],
      "skipped": [],
      "duration": 0,
      "root": true,
      "rootEmpty": true,
      "_timeout": 2000
    }
  ],
  "meta": {
    "mocha": {
      "version": "7.0.1"
    },
    "mochawesome": {
      "options": {
        "quiet": false,
        "reportFilename": "mochawesome",
        "saveHtml": false,
        "saveJson": true,
        "consoleReporter": "spec",
        "useInlineDiffs": false,
        "code": true
      },
      "version": "6.2.2"
    },
    "marge": {
      "options": {
        "id": "default",
        "reportDir": "cypress/reports/mocha",
        "quite": true,
        "overwrite": false,
        "html": false,
        "json": true
      },
      "version": "5.2.0"
    }
  }
}