{
  "stats": {
    "suites": 1,
    "tests": 10,
    "passes": 10,
    "pending": 0,
    "failures": 0,
    "start": "2021-04-28T18:04:23.256Z",
    "end": "2021-04-28T18:04:26.538Z",
    "duration": 3282,
    "testsRegistered": 10,
    "passPercent": 100,
    "pendingPercent": 0,
    "other": 0,
    "hasOther": false,
    "skipped": 0,
    "hasSkipped": false
  },
  "results": [
    {
      "uuid": "c63ecc70-b403-45f0-bb85-675cb48dd1a9",
      "title": "",
      "fullFile": "cypress/integration/e2e/strikeThrough.spec.js",
      "file": "cypress/integration/e2e/strikeThrough.spec.js",
      "beforeHooks": [],
      "afterHooks": [],
      "tests": [],
      "suites": [
        {
          "uuid": "c6b054e8-31d2-4d43-a4cc-133492e8346f",
          "title": "Strike through text validation after clicking for ALL, Active and Completed Buttons",
          "fullFile": "",
          "file": "",
          "beforeHooks": [],
          "afterHooks": [],
          "tests": [
            {
              "title": "Type text in input check box and add ToDo",
              "fullTitle": "Strike through text validation after clicking for ALL, Active and Completed Buttons Type text in input check box and add ToDo",
              "timedOut": null,
              "duration": 1748,
              "state": "passed",
              "speed": "slow",
              "pass": true,
              "fail": false,
              "pending": false,
              "context": null,
              "code": "cy.getDataTestID(_locators.inputTextBox).type(_example.default.trainingSession);\ncy.getDataTestID(_locators.addToDoButton).click();\ncy.getDataTestID(_locators.inputTextBox).type(_example.default.webinars);\ncy.getDataTestID(_locators.addToDoButton).click();\ncy.getDataTestID(_locators.inputTextBox).type(_example.default.technicalDiscussion);\ncy.getDataTestID(_locators.addToDoButton).click();",
              "err": {},
              "uuid": "383b1b2d-b10f-406a-9a05-cd28e1071e8a",
              "parentUUID": "c6b054e8-31d2-4d43-a4cc-133492e8346f",
              "isHook": false,
              "skipped": false
            },
            {
              "title": "Verify the text added is visible",
              "fullTitle": "Strike through text validation after clicking for ALL, Active and Completed Buttons Verify the text added is visible",
              "timedOut": null,
              "duration": 132,
              "state": "passed",
              "speed": "slow",
              "pass": true,
              "fail": false,
              "pending": false,
              "context": null,
              "code": "cy.isTextVisible(_locators.textDecorationOne);\ncy.isTextVisible(_locators.textDecorationTwo);\ncy.isTextVisible(_locators.textDecorationThree);",
              "err": {},
              "uuid": "12228b3e-7962-41d4-9d52-56fd288e8e95",
              "parentUUID": "c6b054e8-31d2-4d43-a4cc-133492e8346f",
              "isHook": false,
              "skipped": false
            },
            {
              "title": "Check whether All button is disabled",
              "fullTitle": "Strike through text validation after clicking for ALL, Active and Completed Buttons Check whether All button is disabled",
              "timedOut": null,
              "duration": 92,
              "state": "passed",
              "speed": "slow",
              "pass": true,
              "fail": false,
              "pending": false,
              "context": null,
              "code": "cy.isButtonDisabled(_locators.allButton);",
              "err": {},
              "uuid": "401b487f-2a2a-41a9-9351-d705ff3b3971",
              "parentUUID": "c6b054e8-31d2-4d43-a4cc-133492e8346f",
              "isHook": false,
              "skipped": false
            },
            {
              "title": "Click on the added text to strike through",
              "fullTitle": "Strike through text validation after clicking for ALL, Active and Completed Buttons Click on the added text to strike through",
              "timedOut": null,
              "duration": 241,
              "state": "passed",
              "speed": "slow",
              "pass": true,
              "fail": false,
              "pending": false,
              "context": null,
              "code": "cy.textClick(_locators.textDecorationOne);\ncy.textClick(_locators.textDecorationTwo);",
              "err": {},
              "uuid": "f55850c1-21ed-4746-ae75-fffc4e10de2a",
              "parentUUID": "c6b054e8-31d2-4d43-a4cc-133492e8346f",
              "isHook": false,
              "skipped": false
            },
            {
              "title": "Check whether completed button is enabled and click it",
              "fullTitle": "Strike through text validation after clicking for ALL, Active and Completed Buttons Check whether completed button is enabled and click it",
              "timedOut": null,
              "duration": 186,
              "state": "passed",
              "speed": "slow",
              "pass": true,
              "fail": false,
              "pending": false,
              "context": null,
              "code": "cy.isButtonEnabled(_locators.completedButton);\ncy.get(_locators.completedButton).click();",
              "err": {},
              "uuid": "a30a74ef-a77f-42f9-ab44-d76b156cf18b",
              "parentUUID": "c6b054e8-31d2-4d43-a4cc-133492e8346f",
              "isHook": false,
              "skipped": false
            },
            {
              "title": "Verify strike through text is visible after clicking completed button",
              "fullTitle": "Strike through text validation after clicking for ALL, Active and Completed Buttons Verify strike through text is visible after clicking completed button",
              "timedOut": null,
              "duration": 78,
              "state": "passed",
              "speed": "slow",
              "pass": true,
              "fail": false,
              "pending": false,
              "context": null,
              "code": "cy.isXpathVisible(_locators.strikeThroughOne);\ncy.isXpathVisible(_locators.strikeThroughTwo);",
              "err": {},
              "uuid": "7c94eff1-6017-4952-8b55-05ca2cc1367d",
              "parentUUID": "c6b054e8-31d2-4d43-a4cc-133492e8346f",
              "isHook": false,
              "skipped": false
            },
            {
              "title": "Click on All button",
              "fullTitle": "Strike through text validation after clicking for ALL, Active and Completed Buttons Click on All button",
              "timedOut": null,
              "duration": 137,
              "state": "passed",
              "speed": "slow",
              "pass": true,
              "fail": false,
              "pending": false,
              "context": null,
              "code": "cy.get(_locators.allButton).click();",
              "err": {},
              "uuid": "5d0436ac-5841-4136-9fdc-21062fe6a7e8",
              "parentUUID": "c6b054e8-31d2-4d43-a4cc-133492e8346f",
              "isHook": false,
              "skipped": false
            },
            {
              "title": "Verify strike through and non-strike through text is visible after clicking All button",
              "fullTitle": "Strike through text validation after clicking for ALL, Active and Completed Buttons Verify strike through and non-strike through text is visible after clicking All button",
              "timedOut": null,
              "duration": 138,
              "state": "passed",
              "speed": "slow",
              "pass": true,
              "fail": false,
              "pending": false,
              "context": null,
              "code": "cy.isXpathVisible(_locators.strikeThroughOne);\ncy.isXpathVisible(_locators.strikeThroughTwo);\ncy.isXpathVisible(_locators.strikeThroughThree);",
              "err": {},
              "uuid": "5557c6ed-f97e-41a0-b49b-11100f9fedab",
              "parentUUID": "c6b054e8-31d2-4d43-a4cc-133492e8346f",
              "isHook": false,
              "skipped": false
            },
            {
              "title": "Click on Active button",
              "fullTitle": "Strike through text validation after clicking for ALL, Active and Completed Buttons Click on Active button",
              "timedOut": null,
              "duration": 182,
              "state": "passed",
              "speed": "slow",
              "pass": true,
              "fail": false,
              "pending": false,
              "context": null,
              "code": "cy.get(_locators.activeButton).click();",
              "err": {},
              "uuid": "5e82ca72-fd06-4d55-99e4-26ced330d4d4",
              "parentUUID": "c6b054e8-31d2-4d43-a4cc-133492e8346f",
              "isHook": false,
              "skipped": false
            },
            {
              "title": "Verify only non-strike through text is visible after clicking All button",
              "fullTitle": "Strike through text validation after clicking for ALL, Active and Completed Buttons Verify only non-strike through text is visible after clicking All button",
              "timedOut": null,
              "duration": 148,
              "state": "passed",
              "speed": "slow",
              "pass": true,
              "fail": false,
              "pending": false,
              "context": null,
              "code": "cy.isXpathVisible(_locators.strikeThroughThree);\ncy.isXpathNotVisible(_locators.strikeThroughOne);\ncy.isXpathNotVisible(_locators.strikeThroughTwo);",
              "err": {},
              "uuid": "45117ad9-328d-40ca-bb37-a2bd7ca1e505",
              "parentUUID": "c6b054e8-31d2-4d43-a4cc-133492e8346f",
              "isHook": false,
              "skipped": false
            }
          ],
          "suites": [],
          "passes": [
            "383b1b2d-b10f-406a-9a05-cd28e1071e8a",
            "12228b3e-7962-41d4-9d52-56fd288e8e95",
            "401b487f-2a2a-41a9-9351-d705ff3b3971",
            "f55850c1-21ed-4746-ae75-fffc4e10de2a",
            "a30a74ef-a77f-42f9-ab44-d76b156cf18b",
            "7c94eff1-6017-4952-8b55-05ca2cc1367d",
            "5d0436ac-5841-4136-9fdc-21062fe6a7e8",
            "5557c6ed-f97e-41a0-b49b-11100f9fedab",
            "5e82ca72-fd06-4d55-99e4-26ced330d4d4",
            "45117ad9-328d-40ca-bb37-a2bd7ca1e505"
          ],
          "failures": [],
          "pending": [],
          "skipped": [],
          "duration": 3082,
          "root": false,
          "rootEmpty": false,
          "_timeout": 2000
        }
      ],
      "passes": [],
      "failures": [],
      "pending": [],
      "skipped": [],
      "duration": 0,
      "root": true,
      "rootEmpty": true,
      "_timeout": 2000
    }
  ],
  "meta": {
    "mocha": {
      "version": "7.0.1"
    },
    "mochawesome": {
      "options": {
        "quiet": false,
        "reportFilename": "mochawesome",
        "saveHtml": false,
        "saveJson": true,
        "consoleReporter": "spec",
        "useInlineDiffs": false,
        "code": true
      },
      "version": "6.2.2"
    },
    "marge": {
      "options": {
        "id": "default",
        "reportDir": "cypress/reports/mocha",
        "quite": true,
        "overwrite": false,
        "html": false,
        "json": true
      },
      "version": "5.2.0"
    }
  }
}