{
  "stats": {
    "suites": 1,
    "tests": 15,
    "passes": 15,
    "pending": 0,
    "failures": 0,
    "start": "2021-04-29T09:27:29.714Z",
    "end": "2021-04-29T09:27:34.762Z",
    "duration": 5048,
    "testsRegistered": 15,
    "passPercent": 100,
    "pendingPercent": 0,
    "other": 0,
    "hasOther": false,
    "skipped": 0,
    "hasSkipped": false
  },
  "results": [
    {
      "uuid": "0d3a7a4f-6b4c-420a-9909-2899ab765ec3",
      "title": "",
      "fullFile": "cypress/integration/e2e/completedButton.spec.js",
      "file": "cypress/integration/e2e/completedButton.spec.js",
      "beforeHooks": [],
      "afterHooks": [],
      "tests": [],
      "suites": [
        {
          "uuid": "377d4000-075d-4851-8f0e-638b01ec9762",
          "title": "Completed Button",
          "fullFile": "",
          "file": "",
          "beforeHooks": [],
          "afterHooks": [],
          "tests": [
            {
              "title": "Type text in input check box and add ToDo",
              "fullTitle": "Completed Button Type text in input check box and add ToDo",
              "timedOut": null,
              "duration": 1932,
              "state": "passed",
              "speed": "slow",
              "pass": true,
              "fail": false,
              "pending": false,
              "context": null,
              "code": "cy.getDataTestID(_locators.inputTextBox).type(_example.default.trainingSession);\ncy.getDataTestID(_locators.addToDoButton).click();\ncy.getDataTestID(_locators.inputTextBox).type(_example.default.webinars);\ncy.getDataTestID(_locators.addToDoButton).click();\ncy.getDataTestID(_locators.inputTextBox).type(_example.default.technicalDiscussion);\ncy.getDataTestID(_locators.addToDoButton).click();",
              "err": {},
              "uuid": "89287059-a3d2-4648-b2d0-697273519a92",
              "parentUUID": "377d4000-075d-4851-8f0e-638b01ec9762",
              "isHook": false,
              "skipped": false
            },
            {
              "title": "Verify the text added is visible",
              "fullTitle": "Completed Button Verify the text added is visible",
              "timedOut": null,
              "duration": 316,
              "state": "passed",
              "speed": "slow",
              "pass": true,
              "fail": false,
              "pending": false,
              "context": null,
              "code": "cy.isTextVisible(_locators.textDecorationOne);\ncy.isTextVisible(_locators.textDecorationTwo);\ncy.isTextVisible(_locators.textDecorationThree);",
              "err": {},
              "uuid": "219c392a-d6c1-4f11-bfc7-90bec092444a",
              "parentUUID": "377d4000-075d-4851-8f0e-638b01ec9762",
              "isHook": false,
              "skipped": false
            },
            {
              "title": "Check whether All button is disabled",
              "fullTitle": "Completed Button Check whether All button is disabled",
              "timedOut": null,
              "duration": 126,
              "state": "passed",
              "speed": "slow",
              "pass": true,
              "fail": false,
              "pending": false,
              "context": null,
              "code": "cy.isButtonDisabled(_locators.allButton);",
              "err": {},
              "uuid": "6bdc8cd5-b3ee-4756-bed6-80a77c5a9934",
              "parentUUID": "377d4000-075d-4851-8f0e-638b01ec9762",
              "isHook": false,
              "skipped": false
            },
            {
              "title": "Check whether completed button is enabled and click it",
              "fullTitle": "Completed Button Check whether completed button is enabled and click it",
              "timedOut": null,
              "duration": 251,
              "state": "passed",
              "speed": "slow",
              "pass": true,
              "fail": false,
              "pending": false,
              "context": null,
              "code": "cy.isButtonEnabled(_locators.completedButton);\ncy.get(_locators.completedButton).click();",
              "err": {},
              "uuid": "b75b6029-fef7-4e07-a912-93d17448f432",
              "parentUUID": "377d4000-075d-4851-8f0e-638b01ec9762",
              "isHook": false,
              "skipped": false
            },
            {
              "title": "Check whether completed button is disabled now",
              "fullTitle": "Completed Button Check whether completed button is disabled now",
              "timedOut": null,
              "duration": 113,
              "state": "passed",
              "speed": "slow",
              "pass": true,
              "fail": false,
              "pending": false,
              "context": null,
              "code": "cy.isButtonDisabled(_locators.completedButton);",
              "err": {},
              "uuid": "208e48a0-d402-408d-b0c7-9fa99ebbc77f",
              "parentUUID": "377d4000-075d-4851-8f0e-638b01ec9762",
              "isHook": false,
              "skipped": false
            },
            {
              "title": "Verify the text added earlier is not visible",
              "fullTitle": "Completed Button Verify the text added earlier is not visible",
              "timedOut": null,
              "duration": 130,
              "state": "passed",
              "speed": "slow",
              "pass": true,
              "fail": false,
              "pending": false,
              "context": null,
              "code": "cy.isTextNotVisible(_locators.textDecorationOne);\ncy.isTextNotVisible(_locators.textDecorationTwo);\ncy.isTextNotVisible(_locators.textDecorationThree);",
              "err": {},
              "uuid": "039a1a21-d977-41a1-a86d-8453fb5ed1bd",
              "parentUUID": "377d4000-075d-4851-8f0e-638b01ec9762",
              "isHook": false,
              "skipped": false
            },
            {
              "title": "Verify show label is visible",
              "fullTitle": "Completed Button Verify show label is visible",
              "timedOut": null,
              "duration": 107,
              "state": "passed",
              "speed": "slow",
              "pass": true,
              "fail": false,
              "pending": false,
              "context": null,
              "code": "cy.isVisible(_locators.showLabel);",
              "err": {},
              "uuid": "9f210377-e08f-4546-ac22-52b6fe3be33b",
              "parentUUID": "377d4000-075d-4851-8f0e-638b01ec9762",
              "isHook": false,
              "skipped": false
            },
            {
              "title": "Check whether all and active buttons are enabled now",
              "fullTitle": "Completed Button Check whether all and active buttons are enabled now",
              "timedOut": null,
              "duration": 71,
              "state": "passed",
              "speed": "medium",
              "pass": true,
              "fail": false,
              "pending": false,
              "context": null,
              "code": "cy.isButtonEnabled(_locators.allButton);\ncy.isButtonEnabled(_locators.activeButton);",
              "err": {},
              "uuid": "6b99b212-53c7-4a36-a2ab-1ef2dd6ed002",
              "parentUUID": "377d4000-075d-4851-8f0e-638b01ec9762",
              "isHook": false,
              "skipped": false
            },
            {
              "title": "Verify input text box is enabled",
              "fullTitle": "Completed Button Verify input text box is enabled",
              "timedOut": null,
              "duration": 124,
              "state": "passed",
              "speed": "slow",
              "pass": true,
              "fail": false,
              "pending": false,
              "context": null,
              "code": "cy.isEnabled(_locators.inputTextBox);",
              "err": {},
              "uuid": "9d8a0b71-98cc-458e-bc17-a787dd4141a5",
              "parentUUID": "377d4000-075d-4851-8f0e-638b01ec9762",
              "isHook": false,
              "skipped": false
            },
            {
              "title": "Verify Add Todo button is enabled",
              "fullTitle": "Completed Button Verify Add Todo button is enabled",
              "timedOut": null,
              "duration": 83,
              "state": "passed",
              "speed": "slow",
              "pass": true,
              "fail": false,
              "pending": false,
              "context": null,
              "code": "cy.isEnabled(_locators.addToDoButton);",
              "err": {},
              "uuid": "5f36308f-37aa-49c7-a7b1-e0d156b37a5e",
              "parentUUID": "377d4000-075d-4851-8f0e-638b01ec9762",
              "isHook": false,
              "skipped": false
            },
            {
              "title": "Click on All button",
              "fullTitle": "Completed Button Click on All button",
              "timedOut": null,
              "duration": 309,
              "state": "passed",
              "speed": "slow",
              "pass": true,
              "fail": false,
              "pending": false,
              "context": null,
              "code": "cy.get(_locators.allButton).click();",
              "err": {},
              "uuid": "e1d2c965-4d23-4583-a7e2-fc21552ddc3d",
              "parentUUID": "377d4000-075d-4851-8f0e-638b01ec9762",
              "isHook": false,
              "skipped": false
            },
            {
              "title": "Click on the added text to strike through",
              "fullTitle": "Completed Button Click on the added text to strike through",
              "timedOut": null,
              "duration": 392,
              "state": "passed",
              "speed": "slow",
              "pass": true,
              "fail": false,
              "pending": false,
              "context": null,
              "code": "cy.textClick(_locators.textDecorationOne);\ncy.textClick(_locators.textDecorationTwo);",
              "err": {},
              "uuid": "379074ce-4537-4363-9f68-723322a7c1ee",
              "parentUUID": "377d4000-075d-4851-8f0e-638b01ec9762",
              "isHook": false,
              "skipped": false
            },
            {
              "title": "Verify required text is visible with strike through",
              "fullTitle": "Completed Button Verify required text is visible with strike through",
              "timedOut": null,
              "duration": 124,
              "state": "passed",
              "speed": "slow",
              "pass": true,
              "fail": false,
              "pending": false,
              "context": null,
              "code": "cy.isXpathVisible(_locators.strikeThroughOne);\ncy.isXpathVisible(_locators.strikeThroughTwo);",
              "err": {},
              "uuid": "27d23561-26bd-4714-aea7-7a117d71f105",
              "parentUUID": "377d4000-075d-4851-8f0e-638b01ec9762",
              "isHook": false,
              "skipped": false
            },
            {
              "title": "Verify Completed button is enabled and click it",
              "fullTitle": "Completed Button Verify Completed button is enabled and click it",
              "timedOut": null,
              "duration": 387,
              "state": "passed",
              "speed": "slow",
              "pass": true,
              "fail": false,
              "pending": false,
              "context": null,
              "code": "cy.isButtonEnabled(_locators.completedButton);\ncy.get(_locators.completedButton).click();",
              "err": {},
              "uuid": "0d0628bd-eb07-41d3-a7ca-4e1aac05d14a",
              "parentUUID": "377d4000-075d-4851-8f0e-638b01ec9762",
              "isHook": false,
              "skipped": false
            },
            {
              "title": "Verify strike through text is visible after clicking completed button",
              "fullTitle": "Completed Button Verify strike through text is visible after clicking completed button",
              "timedOut": null,
              "duration": 221,
              "state": "passed",
              "speed": "slow",
              "pass": true,
              "fail": false,
              "pending": false,
              "context": null,
              "code": "cy.isXpathVisible(_locators.strikeThroughOne);\ncy.isXpathVisible(_locators.strikeThroughTwo);",
              "err": {},
              "uuid": "6987d9e8-3d62-47d4-bc17-75c197ee785e",
              "parentUUID": "377d4000-075d-4851-8f0e-638b01ec9762",
              "isHook": false,
              "skipped": false
            }
          ],
          "suites": [],
          "passes": [
            "89287059-a3d2-4648-b2d0-697273519a92",
            "219c392a-d6c1-4f11-bfc7-90bec092444a",
            "6bdc8cd5-b3ee-4756-bed6-80a77c5a9934",
            "b75b6029-fef7-4e07-a912-93d17448f432",
            "208e48a0-d402-408d-b0c7-9fa99ebbc77f",
            "039a1a21-d977-41a1-a86d-8453fb5ed1bd",
            "9f210377-e08f-4546-ac22-52b6fe3be33b",
            "6b99b212-53c7-4a36-a2ab-1ef2dd6ed002",
            "9d8a0b71-98cc-458e-bc17-a787dd4141a5",
            "5f36308f-37aa-49c7-a7b1-e0d156b37a5e",
            "e1d2c965-4d23-4583-a7e2-fc21552ddc3d",
            "379074ce-4537-4363-9f68-723322a7c1ee",
            "27d23561-26bd-4714-aea7-7a117d71f105",
            "0d0628bd-eb07-41d3-a7ca-4e1aac05d14a",
            "6987d9e8-3d62-47d4-bc17-75c197ee785e"
          ],
          "failures": [],
          "pending": [],
          "skipped": [],
          "duration": 4686,
          "root": false,
          "rootEmpty": false,
          "_timeout": 2000
        }
      ],
      "passes": [],
      "failures": [],
      "pending": [],
      "skipped": [],
      "duration": 0,
      "root": true,
      "rootEmpty": true,
      "_timeout": 2000
    }
  ],
  "meta": {
    "mocha": {
      "version": "7.0.1"
    },
    "mochawesome": {
      "options": {
        "quiet": false,
        "reportFilename": "mochawesome",
        "saveHtml": false,
        "saveJson": true,
        "consoleReporter": "spec",
        "useInlineDiffs": false,
        "code": true
      },
      "version": "6.2.2"
    },
    "marge": {
      "options": {
        "id": "default",
        "reportDir": "cypress/reports/mocha",
        "quite": true,
        "overwrite": false,
        "html": false,
        "json": true
      },
      "version": "5.2.0"
    }
  }
}